<svg xmlns="http://www.w3.org/2000/svg" xmlns:xlink="http://www.w3.org/1999/xlink" width="323" height="135" viewBox="0 0 323 135">
  <defs>
    <linearGradient id="linear-gradient" x1="0.5" x2="0.5" y2="1" gradientUnits="objectBoundingBox">
      <stop offset="0" stop-color="#13c8dc"/>
      <stop offset="1" stop-color="#41fafa"/>
    </linearGradient>
  </defs>
  <g id="Grupo_1653" data-name="Grupo 1653" transform="translate(-304 -773)">
    <path id="background" d="M14,0H309a14,14,0,0,1,14,14V121a14,14,0,0,1-14,14H14A14,14,0,0,1,0,121V14A14,14,0,0,1,14,0Z" transform="translate(304 773)" fill="url(#linear-gradient)"/>
    <ellipse id="Elipse_51" data-name="Elipse 51" cx="31.002" cy="31.002" rx="31.002" ry="31.002" transform="translate(340.998 809.498)" fill="#fff"/>
    <path id="Trazado_638" data-name="Trazado 638" d="M50,3A43,43,0,1,1,8.371,56.777" transform="translate(321.997 794.496)" fill="none" stroke="#a8eff6" stroke-linecap="round" stroke-width="6"/>
    <ellipse id="Elipse_52" data-name="Elipse 52" cx="7.501" cy="7.501" rx="7.501" ry="7.501" transform="translate(322.868 843.499)" fill="#faa500"/>
    <path id="th-list" d="M9.63,43.865v5.159a1.548,1.548,0,0,1-1.548,1.548H1.548A1.548,1.548,0,0,1,0,49.024V43.865a1.548,1.548,0,0,1,1.548-1.548H8.082A1.548,1.548,0,0,1,9.63,43.865ZM0,54.183v5.159A1.548,1.548,0,0,0,1.548,60.89H8.082A1.548,1.548,0,0,0,9.63,59.342V54.183a1.548,1.548,0,0,0-1.548-1.548H1.548A1.548,1.548,0,0,0,0,54.183ZM8.082,32H1.548A1.548,1.548,0,0,0,0,33.548v5.159a1.548,1.548,0,0,0,1.548,1.548H8.082A1.548,1.548,0,0,0,9.63,38.707V33.548A1.548,1.548,0,0,0,8.082,32Zm5.159,28.89H31.469a1.548,1.548,0,0,0,1.548-1.548V54.183a1.548,1.548,0,0,0-1.548-1.548H13.241a1.548,1.548,0,0,0-1.548,1.548v5.159a1.548,1.548,0,0,0,1.548,1.548ZM11.693,33.548v5.159a1.548,1.548,0,0,0,1.548,1.548H31.469a1.548,1.548,0,0,0,1.548-1.548V33.548A1.548,1.548,0,0,0,31.469,32H13.241a1.548,1.548,0,0,0-1.548,1.548Zm1.548,17.024H31.469a1.548,1.548,0,0,0,1.548-1.548V43.865a1.548,1.548,0,0,0-1.548-1.548H13.241a1.548,1.548,0,0,0-1.548,1.548v5.159a1.548,1.548,0,0,0,1.548,1.548Z" transform="translate(356.177 796.056)" fill="#147ba8"/>
  </g>
</svg>
